<?xml version="1.0" encoding="utf-8"?>
<!-- Generator: Adobe Illustrator 24.0.2, SVG Export Plug-In . SVG Version: 6.00 Build 0)  -->
<svg version="1.1" id="Layer_1" xmlns="http://www.w3.org/2000/svg" xmlns:xlink="http://www.w3.org/1999/xlink" x="0px" y="0px"
	 viewBox="0 0 512 223.2" style="enable-background:new 0 0 512 223.2;" xml:space="preserve">
<g>
	<g>
		<g>
			<path d="M390.1,169.2c0,7.7,6.2,13.9,13.9,13.9c7.7,0,13.9-6.2,13.9-13.9c0-7.7-6.2-13.9-13.9-13.9
				C396.3,155.3,390.1,161.5,390.1,169.2z"/>
			<path d="M0,100.2l0,70.2c0,5.8,4.7,10.5,10.5,10.5h47.7c2.3,10.2,7.4,19.5,15,26.9c10.1,9.9,23.5,15.3,37.6,15.3
				c14.1,0,27.5-5.4,37.6-15.3c7.6-7.4,12.8-16.7,15-26.9h187.7c2.2,10.2,7.4,19.5,15,26.9c10.1,9.9,23.5,15.3,37.6,15.3
				c14.1,0,27.5-5.4,37.7-15.3c7.6-7.4,12.8-16.8,15-26.9h44.9c5.8,0,10.5-4.7,10.5-10.5V133c0-15.5-5.6-30.6-15.7-42.3
				C486.1,79,472,71.3,456.7,69l-63.4-9.2l-88.4-44.9C285.8,5.1,264.3,0,242.9,0l-59.8,0c-17.5,0-34.6,3.3-50.9,9.8L34.7,48.9
				C13.6,57.4,0,77.5,0,100.2z M146.6,26.9l-25,32.6H64.8l75.3-30.2C142.2,28.4,144.4,27.6,146.6,26.9z M233.1,59.4H148l29.5-38.4
				c1.9-0.1,3.8-0.1,5.7-0.1h50V59.4z M346.3,59.4H254V21.5c14.4,1.4,28.5,5.5,41.3,12L346.3,59.4z M488,117
				c-15.6-1.5-28.4-12.4-32.7-27C470.3,92.8,482.5,103.3,488,117z M370.9,169.2c0-18.2,14.8-33,33-33c18.2,0,33,14.8,33,33
				s-14.8,33-33,33C385.7,202.2,370.9,187.4,370.9,169.2z M77.9,169.2c0-18.2,14.8-33,33-33c18.2,0,33,14.8,33,33s-14.8,33-33,33
				C92.7,202.2,77.9,187.4,77.9,169.2z M20.9,160v-31.2h4.8c19.2,0,34.7-15.6,34.7-34.8V80.4h66.3c0,0,0,0,0,0c0,0,0,0,0,0h262.5
				l44,6.4c3.7,28.8,28.1,51.1,57.8,51.3V160h-34c-4.4-25.4-26.5-44.8-53.2-44.8c-26.6,0-48.8,19.4-53.2,44.8H164.1
				c-4.4-25.4-26.5-44.8-53.2-44.8c-26.6,0-48.8,19.4-53.2,44.8H20.9L20.9,160z M20.9,107.8v-7.6c0-7.3,2.3-14.2,6.3-19.9h12.3V94
				c0,7.6-6.2,13.8-13.8,13.8H20.9L20.9,107.8z"/>
			<path d="M97,169.2c0,7.7,6.2,13.9,13.9,13.9c7.7,0,13.9-6.2,13.9-13.9c0-7.7-6.2-13.9-13.9-13.9C103.2,155.3,97,161.5,97,169.2z"
				/>
		</g>
	</g>
</g>
<g>
	<g>
		<path d="M211.3,120.2c0,5.8,4.7,10.5,10.5,10.5h69.4c5.8,0,10.5-4.7,10.5-10.5s-4.7-10.5-10.5-10.5h-69.4
			C216,109.7,211.3,114.4,211.3,120.2z"/>
	</g>
</g>
<g id="SVGCleanerId_0">
	<g>
		<path d="M390.1,169.2c0,7.7,6.2,13.9,13.9,13.9c7.7,0,13.9-6.2,13.9-13.9c0-7.7-6.2-13.9-13.9-13.9
			C396.3,155.3,390.1,161.5,390.1,169.2z"/>
	</g>
</g>
<g id="SVGCleanerId_1">
	<g>
		<path d="M97,169.2c0,7.7,6.2,13.9,13.9,13.9c7.7,0,13.9-6.2,13.9-13.9c0-7.7-6.2-13.9-13.9-13.9C103.2,155.3,97,161.5,97,169.2z"
			/>
	</g>
</g>
<g>
	<g>
		<path d="M390.1,169.2c0,7.7,6.2,13.9,13.9,13.9c7.7,0,13.9-6.2,13.9-13.9c0-7.7-6.2-13.9-13.9-13.9
			C396.3,155.3,390.1,161.5,390.1,169.2z"/>
	</g>
</g>
<g>
	<g>
		<path d="M97,169.2c0,7.7,6.2,13.9,13.9,13.9c7.7,0,13.9-6.2,13.9-13.9c0-7.7-6.2-13.9-13.9-13.9C103.2,155.3,97,161.5,97,169.2z"
			/>
	</g>
</g>
</svg>
