<?xml version="1.0" encoding="utf-8"?>
<!-- Generator: Adobe Illustrator 24.0.2, SVG Export Plug-In . SVG Version: 6.00 Build 0)  -->
<svg version="1.1" id="Capa_1" xmlns="http://www.w3.org/2000/svg" xmlns:xlink="http://www.w3.org/1999/xlink" x="0px" y="0px"
	 viewBox="0 0 512 512" style="enable-background:new 0 0 512 512;" xml:space="preserve">
<g>
	<path d="M256,512c141.6,0,256-114.4,256-256S397.6,0,256,0S0,114.4,0,256S114.4,512,256,512z M40,246H20.2
		c2.4-57.5,25.5-109.8,62.1-149.6l14.2,14.2c3.9,3.9,10.2,3.9,14.1,0s3.9-10.2,0-14.1L96.4,82.3c39.8-36.5,92-59.6,149.6-62.1V40
		c0,5.5,4.5,10,10,10s10-4.5,10-10V20.2c57.5,2.4,109.8,25.5,149.6,62.1l-14.2,14.2c-3.9,3.9-3.9,10.2,0,14.1s10.2,3.9,14.1,0
		l14.2-14.2c36.5,39.8,59.6,92,62.1,149.6H472c-5.5,0-10,4.5-10,10s4.5,10,10,10h19.8c-2.4,57.6-25.5,109.8-62.1,149.6l-14.2-14.2
		c-3.9-3.9-10.2-3.9-14.1,0s-3.9,10.2,0,14.1l14.2,14.2c-39.8,36.5-92,59.6-149.6,62.1V472c0-5.5-4.5-10-10-10s-10,4.5-10,10v19.8
		c-57.5-2.4-109.8-25.5-149.6-62.1l14.2-14.2c3.9-3.9,3.9-10.2,0-14.1s-10.2-3.9-14.1,0l-14.2,14.2c-36.5-39.8-59.6-92-62.1-149.6
		H40c5.5,0,10-4.5,10-10S45.5,246,40,246L40,246z"/>
	<ellipse cx="365.9" cy="366" rx="10" ry="10"/>
	<path d="M256,422c27.5,0,54.8-6.9,79-20c4.9-2.6,6.7-8.7,4-13.6c-2.6-4.9-8.7-6.7-13.6-4C304.2,395.9,280.2,402,256,402
		c-80.5,0-146-65.5-146-146s65.5-146,146-146s146,65.5,146,146c0,24.2-6.1,48.2-17.6,69.4c-2.6,4.9-0.8,10.9,4,13.6
		c4.9,2.6,10.9,0.8,13.6-4c13.1-24.1,20-51.4,20-78.9c0-91.5-74.5-166-166-166S90,164.5,90,256S164.5,422,256,422L256,422z"/>
</g>
<g>
	<path d="M184.5,199.2l17.8,68.5c3.9,15,7.5,28.9,10,42.9h0.8c3.1-13.6,7.5-28.1,12-42.6l22-68.7h20.6l20.9,67.3
		c5,16.1,8.9,30.3,12,44h0.8c2.2-13.6,5.8-27.8,10.3-43.7l19.2-67.6H355l-43.4,134.7h-22.3l-20.6-64.3c-4.7-15-8.6-28.4-12-44.2
		h-0.6c-3.3,16.1-7.5,30.1-12.2,44.5l-21.7,64H200l-40.6-134.7H184.5z"/>
</g>
</svg>
